{
  "$schema": "https://json-schema.org/draft-07/schema",
  "type": "object",
  "properties": {
    "port": {
      "type": "integer",
      "maximum": 65535,
      "minimum": 1
    },
    "ip": {
      "type": "string"
    },
    "pwm_modules": {
      "type": "array",
      "uniqueItems": true,
      "items": {
        "oneOf": [
          {
            "type": "object",
            "properties": {
              "type": {
                "type": "string",
                "enum": [
                  "PiGpio"
                ]
              }
            }
          },
          {
            "type": "object",
            "properties": {
              "type": {
                "type": "string",
                "enum": [
                  "PCA9685"
                ]
              },
              "address": {
                "type": "integer",
                "minimum": 0,
                "maximum": 15
              }
            }
          }
        ]
      }
    },
    "analog_inputs": {
      "type": "array",
      "uniqueItems": true,
      "items": {
        "oneOf": [
          {
            "type": "object",
            "properties": {
              "type": {
                "type": "string",
                "enum": [
                  "MCP3002",
                  "MCP3004",
                  "MCP3008",
                  "MCP3208"
                ]
              },
              "bus": {
                "type": "integer",
                "minimum": 0,
                "maximum": 6
              },
              "chip_select": {
                "type": "integer",
                "minimum": 0,
                "maximum": 16
              }
            }
          }
        ]
      }
    }
  }
}